%YAML 1.1
%TAG !u! tag:unity3d.com,2011:
--- !u!1001 &100100000
Prefab:
  m_ObjectHideFlags: 1
  serializedVersion: 2
  m_Modification:
    m_TransformParent: {fileID: 0}
    m_Modifications: []
    m_RemovedComponents: []
  m_ParentPrefab: {fileID: 0}
  m_RootGameObject: {fileID: 1420119947695036}
  m_IsPrefabParent: 1
--- !u!1 &1070815267836566
GameObject:
  m_ObjectHideFlags: 0
  m_PrefabParentObject: {fileID: 0}
  m_PrefabInternal: {fileID: 100100000}
  serializedVersion: 5
  m_Component:
  - component: {fileID: 4177387608926708}
  - component: {fileID: 33705554215487836}
  - component: {fileID: 23971969077241242}
  m_Layer: 0
  m_Name: Star (1)
  m_TagString: Untagged
  m_Icon: {fileID: 0}
  m_NavMeshLayer: 0
  m_StaticEditorFlags: 0
  m_IsActive: 1
--- !u!1 &1235842044077924
GameObject:
  m_ObjectHideFlags: 0
  m_PrefabParentObject: {fileID: 0}
  m_PrefabInternal: {fileID: 100100000}
  serializedVersion: 5
  m_Component:
  - component: {fileID: 4179871021047398}
  - component: {fileID: 33119580474615830}
  - component: {fileID: 23901429840254836}
  m_Layer: 0
  m_Name: Star (4)
  m_TagString: Untagged
  m_Icon: {fileID: 0}
  m_NavMeshLayer: 0
  m_StaticEditorFlags: 0
  m_IsActive: 1
--- !u!1 &1355489459847058
GameObject:
  m_ObjectHideFlags: 1
  m_PrefabParentObject: {fileID: 0}
  m_PrefabInternal: {fileID: 100100000}
  serializedVersion: 5
  m_Component:
  - component: {fileID: 4106361372568000}
  - component: {fileID: 33989403236583068}
  - component: {fileID: 23802065909254216}
  m_Layer: 0
  m_Name: Star
  m_TagString: Untagged
  m_Icon: {fileID: 0}
  m_NavMeshLayer: 0
  m_StaticEditorFlags: 0
  m_IsActive: 1
--- !u!1 &1378960942661782
GameObject:
  m_ObjectHideFlags: 0
  m_PrefabParentObject: {fileID: 0}
  m_PrefabInternal: {fileID: 100100000}
  serializedVersion: 5
  m_Component:
  - component: {fileID: 4888306821973152}
  - component: {fileID: 33244540927575460}
  - component: {fileID: 23900166226740462}
  m_Layer: 0
  m_Name: Star (5)
  m_TagString: Untagged
  m_Icon: {fileID: 0}
  m_NavMeshLayer: 0
  m_StaticEditorFlags: 0
  m_IsActive: 1
--- !u!1 &1419011871740028
GameObject:
  m_ObjectHideFlags: 0
  m_PrefabParentObject: {fileID: 0}
  m_PrefabInternal: {fileID: 100100000}
  serializedVersion: 5
  m_Component:
  - component: {fileID: 4998435223483644}
  - component: {fileID: 33113422756975040}
  - component: {fileID: 23965086138208788}
  m_Layer: 0
  m_Name: Star (2)
  m_TagString: Untagged
  m_Icon: {fileID: 0}
  m_NavMeshLayer: 0
  m_StaticEditorFlags: 0
  m_IsActive: 1
--- !u!1 &1420119947695036
GameObject:
  m_ObjectHideFlags: 0
  m_PrefabParentObject: {fileID: 0}
  m_PrefabInternal: {fileID: 100100000}
  serializedVersion: 5
  m_Component:
  - component: {fileID: 4032130447359170}
  - component: {fileID: 114277572221351244}
  - component: {fileID: 114723919674145610}
  m_Layer: 0
  m_Name: General MoveTarget
  m_TagString: Untagged
  m_Icon: {fileID: 0}
  m_NavMeshLayer: 0
  m_StaticEditorFlags: 0
  m_IsActive: 1
--- !u!1 &1489635907017666
GameObject:
  m_ObjectHideFlags: 0
  m_PrefabParentObject: {fileID: 0}
  m_PrefabInternal: {fileID: 100100000}
  serializedVersion: 5
  m_Component:
  - component: {fileID: 4330668355441410}
  m_Layer: 0
  m_Name: ground_indicator_model
  m_TagString: Untagged
  m_Icon: {fileID: 0}
  m_NavMeshLayer: 0
  m_StaticEditorFlags: 0
  m_IsActive: 1
--- !u!1 &1756732281132018
GameObject:
  m_ObjectHideFlags: 0
  m_PrefabParentObject: {fileID: 0}
  m_PrefabInternal: {fileID: 100100000}
  serializedVersion: 5
  m_Component:
  - component: {fileID: 4466329691942130}
  - component: {fileID: 33976563296510736}
  - component: {fileID: 23320859202637792}
  m_Layer: 0
  m_Name: Star (6)
  m_TagString: Untagged
  m_Icon: {fileID: 0}
  m_NavMeshLayer: 0
  m_StaticEditorFlags: 0
  m_IsActive: 1
--- !u!1 &1882271742945752
GameObject:
  m_ObjectHideFlags: 0
  m_PrefabParentObject: {fileID: 0}
  m_PrefabInternal: {fileID: 100100000}
  serializedVersion: 5
  m_Component:
  - component: {fileID: 4509105913407538}
  - component: {fileID: 33284387442660560}
  - component: {fileID: 23262068020799950}
  m_Layer: 0
  m_Name: Star (3)
  m_TagString: Untagged
  m_Icon: {fileID: 0}
  m_NavMeshLayer: 0
  m_StaticEditorFlags: 0
  m_IsActive: 1
--- !u!1 &1988930526192636
GameObject:
  m_ObjectHideFlags: 1
  m_PrefabParentObject: {fileID: 0}
  m_PrefabInternal: {fileID: 100100000}
  serializedVersion: 5
  m_Component:
  - component: {fileID: 4377165012130272}
  - component: {fileID: 33758803641872732}
  - component: {fileID: 23564314278788328}
  m_Layer: 0
  m_Name: pCylinder1
  m_TagString: Untagged
  m_Icon: {fileID: 0}
  m_NavMeshLayer: 0
  m_StaticEditorFlags: 0
  m_IsActive: 1
--- !u!4 &4032130447359170
Transform:
  m_ObjectHideFlags: 1
  m_PrefabParentObject: {fileID: 0}
  m_PrefabInternal: {fileID: 100100000}
  m_GameObject: {fileID: 1420119947695036}
  m_LocalRotation: {x: 0, y: 0, z: 0, w: 1}
  m_LocalPosition: {x: -500.36, y: 90.3, z: -583.8075}
  m_LocalScale: {x: 4, y: 4, z: 4}
  m_Children:
  - {fileID: 4177387608926708}
  - {fileID: 4998435223483644}
  - {fileID: 4509105913407538}
  - {fileID: 4179871021047398}
  - {fileID: 4888306821973152}
  - {fileID: 4466329691942130}
  - {fileID: 4330668355441410}
  m_Father: {fileID: 0}
  m_RootOrder: 0
  m_LocalEulerAnglesHint: {x: 0, y: 0, z: 0}
--- !u!4 &4106361372568000
Transform:
  m_ObjectHideFlags: 1
  m_PrefabParentObject: {fileID: 0}
  m_PrefabInternal: {fileID: 100100000}
  m_GameObject: {fileID: 1355489459847058}
  m_LocalRotation: {x: 0, y: 0.42426154, z: 0, w: -0.9055397}
  m_LocalPosition: {x: 0, y: 0, z: 0}
  m_LocalScale: {x: 0.4733233, y: 0.4733233, z: 0.4733233}
  m_Children: []
  m_Father: {fileID: 4330668355441410}
  m_RootOrder: 1
  m_LocalEulerAnglesHint: {x: 0, y: 0, z: 0}
--- !u!4 &4177387608926708
Transform:
  m_ObjectHideFlags: 1
  m_PrefabParentObject: {fileID: 0}
  m_PrefabInternal: {fileID: 100100000}
  m_GameObject: {fileID: 1070815267836566}
  m_LocalRotation: {x: 0, y: 0.2168767, z: 0, w: -0.97619903}
  m_LocalPosition: {x: 1.6134138, y: 0, z: -0.9875393}
  m_LocalScale: {x: 0.22980268, y: 0.2298026, z: 0.22980268}
  m_Children: []
  m_Father: {fileID: 4032130447359170}
  m_RootOrder: 0
  m_LocalEulerAnglesHint: {x: 0, y: -483.88202, z: 0}
--- !u!4 &4179871021047398
Transform:
  m_ObjectHideFlags: 1
  m_PrefabParentObject: {fileID: 0}
  m_PrefabInternal: {fileID: 100100000}
  m_GameObject: {fileID: 1235842044077924}
  m_LocalRotation: {x: 0, y: -0.9408789, z: 0, w: 0.3387431}
  m_LocalPosition: {x: -1.8165836, y: 0, z: 1.0024652}
  m_LocalScale: {x: 0.22979999, y: 0.2298, z: 0.22979999}
  m_Children: []
  m_Father: {fileID: 4032130447359170}
  m_RootOrder: 3
  m_LocalEulerAnglesHint: {x: 0, y: -599.23, z: 0}
--- !u!4 &4330668355441410
Transform:
  m_ObjectHideFlags: 1
  m_PrefabParentObject: {fileID: 0}
  m_PrefabInternal: {fileID: 100100000}
  m_GameObject: {fileID: 1489635907017666}
  m_LocalRotation: {x: 0, y: 0.4809292, z: 0, w: -0.8767595}
  m_LocalPosition: {x: 0, y: 0, z: 0}
  m_LocalScale: {x: 1, y: 1, z: 1}
  m_Children:
  - {fileID: 4377165012130272}
  - {fileID: 4106361372568000}
  m_Father: {fileID: 4032130447359170}
  m_RootOrder: 6
  m_LocalEulerAnglesHint: {x: 0, y: 0, z: 0}
--- !u!4 &4377165012130272
Transform:
  m_ObjectHideFlags: 1
  m_PrefabParentObject: {fileID: 0}
  m_PrefabInternal: {fileID: 100100000}
  m_GameObject: {fileID: 1988930526192636}
  m_LocalRotation: {x: 0, y: -0, z: -0, w: 1}
  m_LocalPosition: {x: -0.0000001176514, y: 0, z: 0.00528581}
  m_LocalScale: {x: 1, y: 1, z: 1}
  m_Children: []
  m_Father: {fileID: 4330668355441410}
  m_RootOrder: 0
  m_LocalEulerAnglesHint: {x: 0, y: 0, z: 0}
--- !u!4 &4466329691942130
Transform:
  m_ObjectHideFlags: 1
  m_PrefabParentObject: {fileID: 0}
  m_PrefabInternal: {fileID: 100100000}
  m_GameObject: {fileID: 1756732281132018}
  m_LocalRotation: {x: 0, y: 0.80224866, z: 0, w: 0.59699005}
  m_LocalPosition: {x: -1.7151461, y: 0, z: -0.98503876}
  m_LocalScale: {x: 0.22980025, y: 0.2298, z: 0.22980025}
  m_Children: []
  m_Father: {fileID: 4032130447359170}
  m_RootOrder: 5
  m_LocalEulerAnglesHint: {x: 0, y: -712.14, z: 0}
--- !u!4 &4509105913407538
Transform:
  m_ObjectHideFlags: 1
  m_PrefabParentObject: {fileID: 0}
  m_PrefabInternal: {fileID: 100100000}
  m_GameObject: {fileID: 1882271742945752}
  m_LocalRotation: {x: 0, y: -0.97845703, z: 0, w: 0.20645085}
  m_LocalPosition: {x: 1.6334124, y: 0, z: 1.0024567}
  m_LocalScale: {x: 0.22980013, y: 0.2298, z: 0.22980013}
  m_Children: []
  m_Father: {fileID: 4032130447359170}
  m_RootOrder: 2
  m_LocalEulerAnglesHint: {x: 0, y: -255.00198, z: 0}
--- !u!4 &4888306821973152
Transform:
  m_ObjectHideFlags: 1
  m_PrefabParentObject: {fileID: 0}
  m_PrefabInternal: {fileID: 100100000}
  m_GameObject: {fileID: 1378960942661782}
  m_LocalRotation: {x: 0, y: -0.14429832, z: 0, w: 0.98953426}
  m_LocalPosition: {x: -2.0075312, y: 0, z: 0.028993607}
  m_LocalScale: {x: 0.22980003, y: 0.2298, z: 0.22980003}
  m_Children: []
  m_Father: {fileID: 4032130447359170}
  m_RootOrder: 4
  m_LocalEulerAnglesHint: {x: 0, y: -475.424, z: 0}
--- !u!4 &4998435223483644
Transform:
  m_ObjectHideFlags: 1
  m_PrefabParentObject: {fileID: 0}
  m_PrefabInternal: {fileID: 100100000}
  m_GameObject: {fileID: 1419011871740028}
  m_LocalRotation: {x: 0, y: -0.7005997, z: 0, w: -0.71355456}
  m_LocalPosition: {x: 1.86341, y: 0, z: -0.027540207}
  m_LocalScale: {x: 0.22980002, y: 0.2298, z: 0.22980002}
  m_Children: []
  m_Father: {fileID: 4032130447359170}
  m_RootOrder: 1
  m_LocalEulerAnglesHint: {x: 0, y: -369.881, z: 0}
--- !u!23 &23262068020799950
MeshRenderer:
  m_ObjectHideFlags: 1
  m_PrefabParentObject: {fileID: 0}
  m_PrefabInternal: {fileID: 100100000}
  m_GameObject: {fileID: 1882271742945752}
  m_Enabled: 1
  m_CastShadows: 1
  m_ReceiveShadows: 1
  m_DynamicOccludee: 1
  m_MotionVectors: 1
  m_LightProbeUsage: 1
  m_ReflectionProbeUsage: 1
  m_Materials:
  - {fileID: 2100000, guid: e38d67a7f1471644dab6e56381e87e3a, type: 2}
  m_StaticBatchInfo:
    firstSubMesh: 0
    subMeshCount: 0
  m_StaticBatchRoot: {fileID: 0}
  m_ProbeAnchor: {fileID: 0}
  m_LightProbeVolumeOverride: {fileID: 0}
  m_ScaleInLightmap: 1
  m_PreserveUVs: 0
  m_IgnoreNormalsForChartDetection: 0
  m_ImportantGI: 0
  m_StitchLightmapSeams: 0
  m_SelectedEditorRenderState: 3
  m_MinimumChartSize: 4
  m_AutoUVMaxDistance: 0.5
  m_AutoUVMaxAngle: 89
  m_LightmapParameters: {fileID: 0}
  m_SortingLayerID: 0
  m_SortingLayer: 0
  m_SortingOrder: 0
--- !u!23 &23320859202637792
MeshRenderer:
  m_ObjectHideFlags: 1
  m_PrefabParentObject: {fileID: 0}
  m_PrefabInternal: {fileID: 100100000}
  m_GameObject: {fileID: 1756732281132018}
  m_Enabled: 1
  m_CastShadows: 1
  m_ReceiveShadows: 1
  m_DynamicOccludee: 1
  m_MotionVectors: 1
  m_LightProbeUsage: 1
  m_ReflectionProbeUsage: 1
  m_Materials:
  - {fileID: 2100000, guid: e38d67a7f1471644dab6e56381e87e3a, type: 2}
  m_StaticBatchInfo:
    firstSubMesh: 0
    subMeshCount: 0
  m_StaticBatchRoot: {fileID: 0}
  m_ProbeAnchor: {fileID: 0}
  m_LightProbeVolumeOverride: {fileID: 0}
  m_ScaleInLightmap: 1
  m_PreserveUVs: 0
  m_IgnoreNormalsForChartDetection: 0
  m_ImportantGI: 0
  m_StitchLightmapSeams: 0
  m_SelectedEditorRenderState: 3
  m_MinimumChartSize: 4
  m_AutoUVMaxDistance: 0.5
  m_AutoUVMaxAngle: 89
  m_LightmapParameters: {fileID: 0}
  m_SortingLayerID: 0
  m_SortingLayer: 0
  m_SortingOrder: 0
--- !u!23 &23564314278788328
MeshRenderer:
  m_ObjectHideFlags: 1
  m_PrefabParentObject: {fileID: 0}
  m_PrefabInternal: {fileID: 100100000}
  m_GameObject: {fileID: 1988930526192636}
  m_Enabled: 1
  m_CastShadows: 1
  m_ReceiveShadows: 1
  m_DynamicOccludee: 1
  m_MotionVectors: 1
  m_LightProbeUsage: 1
  m_ReflectionProbeUsage: 1
  m_Materials:
  - {fileID: 2100000, guid: 028b1be876bed2447833b6c4d68751c2, type: 2}
  m_StaticBatchInfo:
    firstSubMesh: 0
    subMeshCount: 0
  m_StaticBatchRoot: {fileID: 0}
  m_ProbeAnchor: {fileID: 0}
  m_LightProbeVolumeOverride: {fileID: 0}
  m_ScaleInLightmap: 1
  m_PreserveUVs: 0
  m_IgnoreNormalsForChartDetection: 0
  m_ImportantGI: 0
  m_StitchLightmapSeams: 0
  m_SelectedEditorRenderState: 3
  m_MinimumChartSize: 4
  m_AutoUVMaxDistance: 0.5
  m_AutoUVMaxAngle: 89
  m_LightmapParameters: {fileID: 0}
  m_SortingLayerID: 0
  m_SortingLayer: 0
  m_SortingOrder: 0
--- !u!23 &23802065909254216
MeshRenderer:
  m_ObjectHideFlags: 1
  m_PrefabParentObject: {fileID: 0}
  m_PrefabInternal: {fileID: 100100000}
  m_GameObject: {fileID: 1355489459847058}
  m_Enabled: 1
  m_CastShadows: 1
  m_ReceiveShadows: 1
  m_DynamicOccludee: 1
  m_MotionVectors: 1
  m_LightProbeUsage: 1
  m_ReflectionProbeUsage: 1
  m_Materials:
  - {fileID: 2100000, guid: e38d67a7f1471644dab6e56381e87e3a, type: 2}
  m_StaticBatchInfo:
    firstSubMesh: 0
    subMeshCount: 0
  m_StaticBatchRoot: {fileID: 0}
  m_ProbeAnchor: {fileID: 0}
  m_LightProbeVolumeOverride: {fileID: 0}
  m_ScaleInLightmap: 1
  m_PreserveUVs: 0
  m_IgnoreNormalsForChartDetection: 0
  m_ImportantGI: 0
  m_StitchLightmapSeams: 0
  m_SelectedEditorRenderState: 3
  m_MinimumChartSize: 4
  m_AutoUVMaxDistance: 0.5
  m_AutoUVMaxAngle: 89
  m_LightmapParameters: {fileID: 0}
  m_SortingLayerID: 0
  m_SortingLayer: 0
  m_SortingOrder: 0
--- !u!23 &23900166226740462
MeshRenderer:
  m_ObjectHideFlags: 1
  m_PrefabParentObject: {fileID: 0}
  m_PrefabInternal: {fileID: 100100000}
  m_GameObject: {fileID: 1378960942661782}
  m_Enabled: 1
  m_CastShadows: 1
  m_ReceiveShadows: 1
  m_DynamicOccludee: 1
  m_MotionVectors: 1
  m_LightProbeUsage: 1
  m_ReflectionProbeUsage: 1
  m_Materials:
  - {fileID: 2100000, guid: e38d67a7f1471644dab6e56381e87e3a, type: 2}
  m_StaticBatchInfo:
    firstSubMesh: 0
    subMeshCount: 0
  m_StaticBatchRoot: {fileID: 0}
  m_ProbeAnchor: {fileID: 0}
  m_LightProbeVolumeOverride: {fileID: 0}
  m_ScaleInLightmap: 1
  m_PreserveUVs: 0
  m_IgnoreNormalsForChartDetection: 0
  m_ImportantGI: 0
  m_StitchLightmapSeams: 0
  m_SelectedEditorRenderState: 3
  m_MinimumChartSize: 4
  m_AutoUVMaxDistance: 0.5
  m_AutoUVMaxAngle: 89
  m_LightmapParameters: {fileID: 0}
  m_SortingLayerID: 0
  m_SortingLayer: 0
  m_SortingOrder: 0
--- !u!23 &23901429840254836
MeshRenderer:
  m_ObjectHideFlags: 1
  m_PrefabParentObject: {fileID: 0}
  m_PrefabInternal: {fileID: 100100000}
  m_GameObject: {fileID: 1235842044077924}
  m_Enabled: 1
  m_CastShadows: 1
  m_ReceiveShadows: 1
  m_DynamicOccludee: 1
  m_MotionVectors: 1
  m_LightProbeUsage: 1
  m_ReflectionProbeUsage: 1
  m_Materials:
  - {fileID: 2100000, guid: e38d67a7f1471644dab6e56381e87e3a, type: 2}
  m_StaticBatchInfo:
    firstSubMesh: 0
    subMeshCount: 0
  m_StaticBatchRoot: {fileID: 0}
  m_ProbeAnchor: {fileID: 0}
  m_LightProbeVolumeOverride: {fileID: 0}
  m_ScaleInLightmap: 1
  m_PreserveUVs: 0
  m_IgnoreNormalsForChartDetection: 0
  m_ImportantGI: 0
  m_StitchLightmapSeams: 0
  m_SelectedEditorRenderState: 3
  m_MinimumChartSize: 4
  m_AutoUVMaxDistance: 0.5
  m_AutoUVMaxAngle: 89
  m_LightmapParameters: {fileID: 0}
  m_SortingLayerID: 0
  m_SortingLayer: 0
  m_SortingOrder: 0
--- !u!23 &23965086138208788
MeshRenderer:
  m_ObjectHideFlags: 1
  m_PrefabParentObject: {fileID: 0}
  m_PrefabInternal: {fileID: 100100000}
  m_GameObject: {fileID: 1419011871740028}
  m_Enabled: 1
  m_CastShadows: 1
  m_ReceiveShadows: 1
  m_DynamicOccludee: 1
  m_MotionVectors: 1
  m_LightProbeUsage: 1
  m_ReflectionProbeUsage: 1
  m_Materials:
  - {fileID: 2100000, guid: e38d67a7f1471644dab6e56381e87e3a, type: 2}
  m_StaticBatchInfo:
    firstSubMesh: 0
    subMeshCount: 0
  m_StaticBatchRoot: {fileID: 0}
  m_ProbeAnchor: {fileID: 0}
  m_LightProbeVolumeOverride: {fileID: 0}
  m_ScaleInLightmap: 1
  m_PreserveUVs: 0
  m_IgnoreNormalsForChartDetection: 0
  m_ImportantGI: 0
  m_StitchLightmapSeams: 0
  m_SelectedEditorRenderState: 3
  m_MinimumChartSize: 4
  m_AutoUVMaxDistance: 0.5
  m_AutoUVMaxAngle: 89
  m_LightmapParameters: {fileID: 0}
  m_SortingLayerID: 0
  m_SortingLayer: 0
  m_SortingOrder: 0
--- !u!23 &23971969077241242
MeshRenderer:
  m_ObjectHideFlags: 1
  m_PrefabParentObject: {fileID: 0}
  m_PrefabInternal: {fileID: 100100000}
  m_GameObject: {fileID: 1070815267836566}
  m_Enabled: 1
  m_CastShadows: 1
  m_ReceiveShadows: 1
  m_DynamicOccludee: 1
  m_MotionVectors: 1
  m_LightProbeUsage: 1
  m_ReflectionProbeUsage: 1
  m_Materials:
  - {fileID: 2100000, guid: e38d67a7f1471644dab6e56381e87e3a, type: 2}
  m_StaticBatchInfo:
    firstSubMesh: 0
    subMeshCount: 0
  m_StaticBatchRoot: {fileID: 0}
  m_ProbeAnchor: {fileID: 0}
  m_LightProbeVolumeOverride: {fileID: 0}
  m_ScaleInLightmap: 1
  m_PreserveUVs: 0
  m_IgnoreNormalsForChartDetection: 0
  m_ImportantGI: 0
  m_StitchLightmapSeams: 0
  m_SelectedEditorRenderState: 3
  m_MinimumChartSize: 4
  m_AutoUVMaxDistance: 0.5
  m_AutoUVMaxAngle: 89
  m_LightmapParameters: {fileID: 0}
  m_SortingLayerID: 0
  m_SortingLayer: 0
  m_SortingOrder: 0
--- !u!33 &33113422756975040
MeshFilter:
  m_ObjectHideFlags: 1
  m_PrefabParentObject: {fileID: 0}
  m_PrefabInternal: {fileID: 100100000}
  m_GameObject: {fileID: 1419011871740028}
  m_Mesh: {fileID: 4300000, guid: 4dcda7e3ca89530469c511f407dd53ea, type: 3}
--- !u!33 &33119580474615830
MeshFilter:
  m_ObjectHideFlags: 1
  m_PrefabParentObject: {fileID: 0}
  m_PrefabInternal: {fileID: 100100000}
  m_GameObject: {fileID: 1235842044077924}
  m_Mesh: {fileID: 4300000, guid: 4dcda7e3ca89530469c511f407dd53ea, type: 3}
--- !u!33 &33244540927575460
MeshFilter:
  m_ObjectHideFlags: 1
  m_PrefabParentObject: {fileID: 0}
  m_PrefabInternal: {fileID: 100100000}
  m_GameObject: {fileID: 1378960942661782}
  m_Mesh: {fileID: 4300000, guid: 4dcda7e3ca89530469c511f407dd53ea, type: 3}
--- !u!33 &33284387442660560
MeshFilter:
  m_ObjectHideFlags: 1
  m_PrefabParentObject: {fileID: 0}
  m_PrefabInternal: {fileID: 100100000}
  m_GameObject: {fileID: 1882271742945752}
  m_Mesh: {fileID: 4300000, guid: 4dcda7e3ca89530469c511f407dd53ea, type: 3}
--- !u!33 &33705554215487836
MeshFilter:
  m_ObjectHideFlags: 1
  m_PrefabParentObject: {fileID: 0}
  m_PrefabInternal: {fileID: 100100000}
  m_GameObject: {fileID: 1070815267836566}
  m_Mesh: {fileID: 4300000, guid: 4dcda7e3ca89530469c511f407dd53ea, type: 3}
--- !u!33 &33758803641872732
MeshFilter:
  m_ObjectHideFlags: 1
  m_PrefabParentObject: {fileID: 0}
  m_PrefabInternal: {fileID: 100100000}
  m_GameObject: {fileID: 1988930526192636}
  m_Mesh: {fileID: 4300000, guid: 4f073ad362bff9d48bf887e7732165ba, type: 3}
--- !u!33 &33976563296510736
MeshFilter:
  m_ObjectHideFlags: 1
  m_PrefabParentObject: {fileID: 0}
  m_PrefabInternal: {fileID: 100100000}
  m_GameObject: {fileID: 1756732281132018}
  m_Mesh: {fileID: 4300000, guid: 4dcda7e3ca89530469c511f407dd53ea, type: 3}
--- !u!33 &33989403236583068
MeshFilter:
  m_ObjectHideFlags: 1
  m_PrefabParentObject: {fileID: 0}
  m_PrefabInternal: {fileID: 100100000}
  m_GameObject: {fileID: 1355489459847058}
  m_Mesh: {fileID: 4300000, guid: 4dcda7e3ca89530469c511f407dd53ea, type: 3}
--- !u!114 &114277572221351244
MonoBehaviour:
  m_ObjectHideFlags: 1
  m_PrefabParentObject: {fileID: 0}
  m_PrefabInternal: {fileID: 100100000}
  m_GameObject: {fileID: 1420119947695036}
  m_Enabled: 1
  m_EditorHideFlags: 0
  m_Script: {fileID: 11500000, guid: a99412958845c6143b1901f365bc8f58, type: 3}
  m_Name: 
  m_EditorClassIdentifier: 
  timeToGrow: 0.5
  cursorParts:
  - part: {fileID: 4330668355441410}
    rotation: {x: 0, y: 100, z: 0}
    originalLocalPosition: {x: 0, y: 0, z: 0}
    originSet: 1
    bobbingHeight: 0
    bobIntensity: 0
    movingUp: 1
  - part: {fileID: 4106361372568000}
    rotation: {x: 0, y: -150, z: 0}
    originalLocalPosition: {x: 0, y: 0, z: 0}
    originSet: 1
    bobbingHeight: 0
    bobIntensity: 0
    movingUp: 0
  - part: {fileID: 4177387608926708}
    rotation: {x: 0, y: -100, z: 0}
    originalLocalPosition: {x: -1.05, y: 0, z: -1.68}
    originSet: 1
    bobbingHeight: 0
    bobIntensity: 0
    movingUp: 0
  - part: {fileID: 4998435223483644}
    rotation: {x: 0, y: -100, z: 0}
    originalLocalPosition: {x: -0.09, y: 0, z: -1.93}
    originSet: 1
    bobbingHeight: 0
    bobIntensity: 0
    movingUp: 0
  - part: {fileID: 4509105913407538}
    rotation: {x: 0, y: -100, z: 0}
    originalLocalPosition: {x: 0.94, y: 0, z: -1.7}
    originSet: 1
    bobbingHeight: 0
    bobIntensity: 0
    movingUp: 0
  - part: {fileID: 4179871021047398}
    rotation: {x: 0, y: -100, z: 0}
    originalLocalPosition: {x: 0.94, y: 0, z: 1.75}
    originSet: 1
    bobbingHeight: 0
    bobIntensity: 0
    movingUp: 0
  - part: {fileID: 4888306821973152}
    rotation: {x: 0, y: -100, z: 0}
    originalLocalPosition: {x: -0.033470847, y: 0, z: 1.9409485}
    originSet: 1
    bobbingHeight: 0
    bobIntensity: 0
    movingUp: 0
  - part: {fileID: 4466329691942130}
    rotation: {x: 0, y: -100, z: 0}
    originalLocalPosition: {x: -1.0475035, y: 0, z: 1.6485554}
    originSet: 1
    bobbingHeight: 0
    bobIntensity: 0
    movingUp: 1
  speedModifier: 1
--- !u!114 &114723919674145610
MonoBehaviour:
  m_ObjectHideFlags: 1
  m_PrefabParentObject: {fileID: 0}
  m_PrefabInternal: {fileID: 100100000}
  m_GameObject: {fileID: 1420119947695036}
  m_Enabled: 1
  m_EditorHideFlags: 0
  m_Script: {fileID: 11500000, guid: 64cba1eac9d4af54ebf6b73853fa71c5, type: 3}
  m_Name: 
  m_EditorClassIdentifier: 
  Stars:
  - {fileID: 1070815267836566}
  - {fileID: 1419011871740028}
  - {fileID: 1882271742945752}
  - {fileID: 1235842044077924}
  - {fileID: 1378960942661782}
  - {fileID: 1756732281132018}
  - {fileID: 1355489459847058}
  team: 1
